{
  "count": 357,
  "next": "http://127.0.0.1:8000/api/v2/part/?page=18",
  "previous": "http://127.0.0.1:8000/api/v2/part/?page=16",
  "results": [
    {
      "id": 321,
      "division": "악세사리",
      "subdivision": "일자형",
      "drawing": "SW-9462",
      "created_at": "2021-10-23",
      "x": 85.0,
      "y": 110.0,
      "z": 10.0,
      "quantity": 1,
      "price": "35000",
      "material": "SKS3",
      "comment": null,
      "outsource_info": null,
      "type": "연마"
    },
    {
      "id": 322,
      "division": "악세사리",
      "subdivision": "일자형",
      "drawing": "SW-9462",
      "created_at": "2021-10-23",
      "x": 48.0,
      "y": 18.0,
      "z": 17.0,
      "quantity": 1,
      "price": "40000",
      "material": "SKS3",
      "comment": null,
      "outsource_info": null,
      "type": "연마"
    },
    {
      "id": 323,
      "division": "악세사리",
      "subdivision": "일자형",
      "drawing": "SW-9462",
      "created_at": "2021-10-23",
      "x": 110.0,
      "y": 13.0,
      "z": 28.8,
      "quantity": 1,
      "price": "13500",
      "material": "SKS3",
      "comment": null,
      "outsource_info": null,
      "type": "연마"
    },
    {
      "id": 324,
      "division": "악세사리",
      "subdivision": "일자형",
      "drawing": "SW-9462",
      "created_at": "2021-10-23",
      "x": 34.0,
      "y": 30.0,
      "z": 25.5,
      "quantity": 1,
      "price": "24800",
      "material": "SKS3",
      "comment": null,
      "outsource_info": null,
      "type": "연마"
    },
    {
      "id": 325,
      "division": "악세사리",
      "subdivision": "일자형",
      "drawing": "SW-9462",
      "created_at": "2021-10-23",
      "x": 12.0,
      "y": 45.0,
      "z": 17.8,
      "quantity": 1,
      "price": "10000",
      "material": "SKS3",
      "comment": null,
      "outsource_info": null,
      "type": "연마"
    },
    {
      "id": 326,
      "division": "슬라이드",
      "subdivision": null,
      "drawing": "SW-9469",
      "created_at": "2021-10-23",
      "x": 71.0,
      "y": 50.0,
      "z": 25.8,
      "quantity": 1,
      "price": "65000",
      "material": "KP4",
      "comment": null,
      "outsource_info": {
        "id": 107,
        "material_price": "8000",
        "milling_price": "2000",
        "heat_treat_price": "4000",
        "wire_price": "8000",
        "material_client": 4,
        "milling_client": 282,
        "heat_treat_client": 295,
        "wire_client": 303
      },
      "type": "제작"
    },
    {
      "id": 327,
      "division": "슬라이드레일",
      "subdivision": null,
      "drawing": "SW-9469",
      "created_at": "2021-10-23",
      "x": 18.0,
      "y": 55.0,
      "z": 13.8,
      "quantity": 1,
      "price": "10000",
      "material": "SKS3",
      "comment": null,
      "outsource_info": {
        "id": 108,
        "material_price": "7000",
        "milling_price": "2000",
        "heat_treat_price": "10000",
        "wire_price": "10000",
        "material_client": 4,
        "milling_client": 319,
        "heat_treat_client": 73,
        "wire_client": 303
      },
      "type": "제작"
    },
    {
      "id": 328,
      "division": "슬라이드레일",
      "subdivision": null,
      "drawing": "SW-9469",
      "created_at": "2021-10-23",
      "x": 15.0,
      "y": 55.0,
      "z": 13.8,
      "quantity": 1,
      "price": "10000",
      "material": "SKS3",
      "comment": null,
      "outsource_info": {
        "id": 109,
        "material_price": "6000",
        "milling_price": "9000",
        "heat_treat_price": "4000",
        "wire_price": "7000",
        "material_client": 4,
        "milling_client": 168,
        "heat_treat_client": 295,
        "wire_client": 303
      },
      "type": "제작"
    },
    {
      "id": 329,
      "division": "록킹블럭",
      "subdivision": null,
      "drawing": "SW-9469",
      "created_at": "2021-10-23",
      "x": 64.0,
      "y": 36.0,
      "z": 23.0,
      "quantity": 1,
      "price": "55000",
      "material": "SKS3",
      "comment": null,
      "outsource_info": {
        "id": 110,
        "material_price": "2000",
        "milling_price": "4000",
        "heat_treat_price": "4000",
        "wire_price": "9000",
        "material_client": 4,
        "milling_client": 278,
        "heat_treat_client": 73,
        "wire_client": 303
      },
      "type": "제작"
    },
    {
      "id": 330,
      "division": "사각인로우",
      "subdivision": null,
      "drawing": "SW-9465",
      "created_at": "2021-10-23",
      "x": 70.0,
      "y": 20.0,
      "z": 30.0,
      "quantity": 1,
      "price": "40000",
      "material": "SKD61",
      "comment": null,
      "outsource_info": {
        "id": 111,
        "material_price": "4000",
        "milling_price": "5000",
        "heat_treat_price": "8000",
        "wire_price": "3000",
        "material_client": 4,
        "milling_client": 168,
        "heat_treat_client": 295,
        "wire_client": 303
      },
      "type": "제작"
    },
    {
      "id": 331,
      "division": "사각인로우",
      "subdivision": null,
      "drawing": "SW-9465",
      "created_at": "2021-10-23",
      "x": 114.0,
      "y": 20.0,
      "z": 30.0,
      "quantity": 1,
      "price": "40000",
      "material": "SKD61",
      "comment": null,
      "outsource_info": {
        "id": 112,
        "material_price": "1000",
        "milling_price": null,
        "heat_treat_price": "1000",
        "wire_price": "5000",
        "material_client": 4,
        "milling_client": null,
        "heat_treat_client": 295,
        "wire_client": 303
      },
      "type": "제작"
    },
    {
      "id": 332,
      "division": "사각인로우",
      "subdivision": null,
      "drawing": "SW-9467",
      "created_at": "2021-10-23",
      "x": 80.0,
      "y": 20.0,
      "z": 30.0,
      "quantity": 1,
      "price": "40000",
      "material": "SKD61",
      "comment": null,
      "outsource_info": {
        "id": 113,
        "material_price": "5000",
        "milling_price": "5000",
        "heat_treat_price": "2000",
        "wire_price": "2000",
        "material_client": 4,
        "milling_client": 278,
        "heat_treat_client": 295,
        "wire_client": 303
      },
      "type": "제작"
    },
    {
      "id": 333,
      "division": "사각인로우",
      "subdivision": null,
      "drawing": "SW-9467",
      "created_at": "2021-10-23",
      "x": 100.0,
      "y": 20.0,
      "z": 30.0,
      "quantity": 1,
      "price": "40000",
      "material": "SKD61",
      "comment": null,
      "outsource_info": {
        "id": 114,
        "material_price": "1000",
        "milling_price": "1000",
        "heat_treat_price": "5000",
        "wire_price": "4000",
        "material_client": 4,
        "milling_client": 319,
        "heat_treat_client": 73,
        "wire_client": 303
      },
      "type": "제작"
    },
    {
      "id": 334,
      "division": "사각인로우",
      "subdivision": null,
      "drawing": "SW-9471",
      "created_at": "2021-10-23",
      "x": 70.0,
      "y": 20.0,
      "z": 30.0,
      "quantity": 1,
      "price": "40000",
      "material": "SKD61",
      "comment": null,
      "outsource_info": {
        "id": 115,
        "material_price": "5000",
        "milling_price": "4000",
        "heat_treat_price": "6000",
        "wire_price": null,
        "material_client": 4,
        "milling_client": 168,
        "heat_treat_client": 295,
        "wire_client": null
      },
      "type": "제작"
    },
    {
      "id": 335,
      "division": "사각인로우",
      "subdivision": null,
      "drawing": "SW-9471",
      "created_at": "2021-10-23",
      "x": 114.0,
      "y": 20.0,
      "z": 30.0,
      "quantity": 1,
      "price": "40000",
      "material": "SKD61",
      "comment": null,
      "outsource_info": {
        "id": 116,
        "material_price": "10000",
        "milling_price": "7000",
        "heat_treat_price": "5000",
        "wire_price": "7000",
        "material_client": 4,
        "milling_client": 282,
        "heat_treat_client": 73,
        "wire_client": 303
      },
      "type": "제작"
    },
    {
      "id": 336,
      "division": "록킹블럭 메인",
      "subdivision": "각도형",
      "drawing": "SW-9466",
      "created_at": "2021-10-23",
      "x": 70.0,
      "y": 70.0,
      "z": 127.0,
      "quantity": 1,
      "price": "123300",
      "material": "SKS3",
      "comment": null,
      "outsource_info": {
        "id": 117,
        "material_price": "7000",
        "milling_price": "2000",
        "heat_treat_price": "9000",
        "wire_price": "10000",
        "material_client": 4,
        "milling_client": 168,
        "heat_treat_client": 295,
        "wire_client": 303
      },
      "type": "제작"
    },
    {
      "id": 337,
      "division": "슬라이드 메인",
      "subdivision": "각도형",
      "drawing": "SW-9466",
      "created_at": "2021-10-23",
      "x": 79.0,
      "y": 95.0,
      "z": 85.05,
      "quantity": 1,
      "price": "169200",
      "material": "SKS3",
      "comment": null,
      "outsource_info": {
        "id": 118,
        "material_price": "7000",
        "milling_price": "4000",
        "heat_treat_price": "8000",
        "wire_price": "9000",
        "material_client": 4,
        "milling_client": 278,
        "heat_treat_client": 295,
        "wire_client": 303
      },
      "type": "제작"
    },
    {
      "id": 338,
      "division": "악세사리",
      "subdivision": "각도형",
      "drawing": "SW-9466",
      "created_at": "2021-10-23",
      "x": 29.59,
      "y": 100.0,
      "z": 120.0,
      "quantity": 1,
      "price": "116100",
      "material": "SKS3",
      "comment": null,
      "outsource_info": {
        "id": 119,
        "material_price": "2000",
        "milling_price": "9000",
        "heat_treat_price": "4000",
        "wire_price": "2000",
        "material_client": 4,
        "milling_client": 278,
        "heat_treat_client": 295,
        "wire_client": 303
      },
      "type": "제작"
    },
    {
      "id": 339,
      "division": "악세사리",
      "subdivision": "각도형",
      "drawing": "SW-9466",
      "created_at": "2021-10-23",
      "x": 45.0,
      "y": 45.0,
      "z": 25.0,
      "quantity": 1,
      "price": "23800",
      "material": "SKS3",
      "comment": null,
      "outsource_info": {
        "id": 120,
        "material_price": null,
        "milling_price": "7000",
        "heat_treat_price": "3000",
        "wire_price": "3000",
        "material_client": null,
        "milling_client": 319,
        "heat_treat_client": 295,
        "wire_client": 303
      },
      "type": "제작"
    },
    {
      "id": 340,
      "division": "악세사리",
      "subdivision": "각도형",
      "drawing": "SW-9466",
      "created_at": "2021-10-23",
      "x": 100.0,
      "y": 13.0,
      "z": 28.8,
      "quantity": 1,
      "price": "13500",
      "material": "SKS3",
      "comment": null,
      "outsource_info": {
        "id": 121,
        "material_price": "8000",
        "milling_price": "8000",
        "heat_treat_price": "10000",
        "wire_price": "5000",
        "material_client": 4,
        "milling_client": 319,
        "heat_treat_client": 73,
        "wire_client": 303
      },
      "type": "제작"
    }
  ]
}
